0.13352 0.07184  0.17672
0.14016 0.0748  0.17208
0.13112 0.07328  0.18192
0.1464 0.0676  0.1484
0.17312 0.06872  0.1616
0.16816 0.07344  0.13744
0.1984 0.08072  0.11944
0.20392 0.07664  0.08832
0.18824 0.0776  0.09392
0.2128 0.08008  0.0788
0.212 0.07496  0.04112
0.20992 0.08304  0.04344
0.20992 0.12144  0.03608
0.21176 0.09624  0.00872
0.2072 0.08384  0.00448
0.22448 0.12008  -0.00952
0.19672 0.09368  -0.03648
0.18784 0.09104  -0.054
0.20336 0.08512  -0.06328
0.17608 0.08552  -0.0948
0.18176 0.10096  -0.08984
0.14848 0.06208  -0.10272
0.14808 0.08472  -0.13856
0.13896 0.0988  -0.12576
0.12232 0.07744  -0.15464
0.0936 0.07296  -0.15864
0.09504 0.06432  -0.14784
0.07952 0.06608  -0.17168
0.04616 0.07  -0.1756
0.05272 0.07352  -0.17616
0.0348 0.07424  -0.17792
0.00264 0.074  -0.17648
-0.0136 0.0748  -0.17584
-0.0348 0.07648  -0.17304
-0.05376 0.07432  -0.1696
-0.07984 0.08008  -0.17904
-0.09392 0.07728  -0.15216
-0.11144 0.06288  -0.16112
-0.1268 0.08264  -0.12952
-0.14688 0.08288  -0.13152
-0.17688 0.09992  -0.122
-0.16816 0.07608  -0.08776
-0.20104 0.07576  -0.08376
-0.1876 0.07352  -0.0756
-0.21392 0.06624  -0.0468
-0.21512 0.07992  -0.04704
-0.21576 0.0548  -0.0416
-0.21984 0.05288  -0.05432
-0.22248 0.0476  -0.0264
-0.22456 0.05232  -0.0324
-0.20592 0.0536  -0.01464
-0.22776 0.05472  0.01824
-0.22608 0.05464  0.00096
-0.24424 0.0544  0.05376
-0.22104 0.05768  0.04624
-0.2176 0.05664  0.07704
-0.2112 0.05576  0.07312
-0.206 0.05688  0.0844
-0.22104 0.0576  0.11096
-0.1948 0.05784  0.12008
-0.18664 0.05848  0.11088
-0.20096 0.05808  0.1404
-0.168 0.05664  0.13104
-0.17472 0.05744  0.14576
-0.14464 0.05896  0.17168
-0.15776 0.06008  0.17752
-0.12848 0.0484  0.17456
-0.11784 0.04464  0.18736
-0.07192 0.04712  0.21264
-0.05544 0.0536  0.21544
-0.03288 0.04096  0.21488
-0.00208 0.06784  0.21336
0.01232 0.06544  0.21352
0.02976 0.06528  0.20936
0.05968 0.0668  0.2056
0.0456 0.06888  0.22048
0.08368 0.06704  0.1904
0.12168 0.0624  0.20264
0.10432 0.06712  0.17648
0.1292 0.06584  0.17304
0.13936 0.0696  0.16688
0.1296 0.06696  0.18064
0.15624 0.0664  0.15416
